{
  "99c9720ab356a0642a771bea13969a05": "Assets/_Project/Scenes/Level1.unity",
  "ba9f3b1810647f24782386d8f11ca2de": "Assets/_Project/Scenes/Level2.unity",
  "5b5ab59e28b827646bf806c3d2da5f51": "Assets/_Project/Scenes/Loading.unity",
  "fac376bfe52a8a24086f937d0bb7c463": "Assets/_Project/Scenes/MainMenu.unity",
  "907aec8c9f47e4e4db79f4da72bd0013": "Assets/_Project/Scenes/Menu.unity",
  "5d676e04a14dfd74a97274cc2007204a": "Assets/Enemy Galore 1 - Pixel Art/Scenes/EG1 - Demo.unity",
  "0f5dabaed3b5aeb4599cab52404b44c4": "Assets/Fortress Gate_Free/Fortress Gate_Free.unity",
  "4eef2ef4e641de143ba1000e4c684d1a": "Assets/Hovl Studio/Procedural fire/Demo scene/Demo fire.unity",
  "ae5e9d334639a484786a9badbf5b387a": "Assets/LeanTween/Examples/Scenes/Following.unity",
  "ed31b9589883b4d19a6bc0f50d57edec": "Assets/LeanTween/Examples/Scenes/GeneralAdvancedTechniques.unity",
  "733435822951d4505bbf44759df1613d": "Assets/LeanTween/Examples/Scenes/GeneralBasic.unity",
  "db7afcf97d5f646b9986f7e84ca1ac68": "Assets/LeanTween/Examples/Scenes/GeneralBasics2d.unity",
  "a99971c1311c6405d8d2897f3f42ad32": "Assets/LeanTween/Examples/Scenes/GeneralCameraShake.unity",
  "721616f4ed65645df9e1919c91909eb8": "Assets/LeanTween/Examples/Scenes/GeneralEasingTypes.unity",
  "7e603302e334b4bd0bef351e0f1e050c": "Assets/LeanTween/Examples/Scenes/GeneralEvents.unity",
  "28ab900ace00b47e39ad8fef65f3170a": "Assets/LeanTween/Examples/Scenes/GeneralSequencer.unity",
  "7534096fc06e2452687df015b87d7cfa": "Assets/LeanTween/Examples/Scenes/GeneralSimpleUi.unity",
  "698925ae1198741f09200bbe0cbbff86": "Assets/LeanTween/Examples/Scenes/GeneralUISpace.unity",
  "68ea271dda32c4c209e4419b091b2288": "Assets/LeanTween/Examples/Scenes/LogoCinematic.unity",
  "173c35c3d8996463384732672075da90": "Assets/LeanTween/Examples/Scenes/PathBezier.unity",
  "363f43ea320c54cd7ade42f54f59c232": "Assets/LeanTween/Examples/Scenes/PathBezier2d.unity",
  "b5daea63c1cc14d709cb8f5dc7d19173": "Assets/LeanTween/Examples/Scenes/PathSpline2d.unity",
  "2a7ce2e628c14472a9fb2af42917d270": "Assets/LeanTween/Examples/Scenes/PathSplineEndless.unity",
  "924b0d7269de44f8398015b04e7ba081": "Assets/LeanTween/Examples/Scenes/PathSplinePerformance.unity",
  "f7851b12d34d54ef0bc16d6d34318d75": "Assets/LeanTween/Examples/Scenes/PathSplines.unity",
  "0e3bee443b13540cc845f5476188d8b1": "Assets/LeanTween/Examples/Scenes/PathSplineTrack.unity",
  "22e1e363584e94ef6a9661ede1f4e358": "Assets/LeanTween/Examples/Scenes/TestingUnitTests.unity",
  "9d3c1732ee5ca4e86bf2497c4404c656": "Assets/LeanTween/Examples/Scenes/TestingZLegacy.unity",
  "e89d6da1c030f4e238f49a56fff94910": "Assets/LeanTween/Testing/FollowingTests.unity",
  "d2b647bbd8e034971b76756fb286b6c5": "Assets/LeanTween/Testing/PerformanceTests.unity",
  "1a26c48b8152c4a3fb944e75d8a3fad1": "Assets/LeanTween/Testing/Testing240.unity",
  "45c7976860cf7456f836999a7447f343": "Assets/LeanTween/Testing/Testing243.unity",
  "07b38eaa49ca34ee3b10b3bcbd4ab991": "Assets/LeanTween/Testing/Testing246.unity",
  "1b3a161a91c7141faa6806d504d85df6": "Assets/LeanTween/Testing/Testing248.unity",
  "5183fb754722d4edba59e1f7ab972186": "Assets/LeanTween/Testing/TestingDescr.unity",
  "ed20e1ac0146c4887b0e31f3342ade8e": "Assets/LeanTween/Testing/TestingIssue.unity",
  "b9ba0a1a063d840ceab93a6bca146df1": "Assets/LeanTween/Testing/TestingMaxTweens.unity",
  "7f5ea09e01a334a3b9942b6ef860bedf": "Assets/LeanTween/Testing/TestingOptionalCancel.unity",
  "88db57df867844767a1535ae3671ae36": "Assets/LeanTween/Testing/TestingRotate.unity",
  "2eedc500c8611491798b66b64c118120": "Assets/LeanTween/Testing/TestingSceneSwitching.unity",
  "086642bd5cf3543fda601bb4ac7c0fb1": "Assets/LeanTween/Testing/TestingSequencer.unity",
  "1546ca44a4378cc4a954ce05fc80f9d2": "Assets/Pixel Skies DEMO/Scenes/demoscene.unity",
  "0a7d24b3e84ae4c1ba1800d76028d1cf": "Assets/Warped Shooting Fx/Scenes/Demo.unity",
  "e026d555eae824f65922633f37a14385": "Packages/com.unity.render-pipelines.universal/Editor/SceneTemplates/Basic.unity",
  "5cae0d87369a2405eaa962b8d920b947": "Packages/com.unity.render-pipelines.universal/Editor/SceneTemplates/Standard.unity"
}